Evapotranspiration and Temperature in Camarillo, CA
…
daily <- read_csv(here("data/daily_data_CAM.csv"),
                      # R suggested to use
                      show_col_types = FALSE) %>%
  # Helps not have 'qc...6, etc'
  janitor::clean_names()
head(eto)

Data Cleaning

# Dropping columns that have `qc`
# ETO Dataset
drop <- c("qc_6", "qc_8")
eto[ , !(names(eto) %in% drop)]

# A tibble: 426 × 8
   stn_id stn_name  cimis_region date  target_year_e_to_in previous_year_e_to_in
    <dbl> <chr>     <chr>        <chr>               <dbl>                 <dbl>
 1    152 Camarillo Central Coa… 9/1/…                0.19                  0.17
 2    152 Camarillo Central Coa… 9/2/…                0.18                  0.13
 3    152 Camarillo Central Coa… 9/3/…                0.19                  0.15
 4    152 Camarillo Central Coa… 9/4/…                0.19                  0.18
 5    152 Camarillo Central Coa… 9/5/…                0.21                  0.17
 6    152 Camarillo Central Coa… 9/6/…                0.2                   0.16
 7    152 Camarillo Central Coa… 9/7/…                0.2                   0.18
 8    152 Camarillo Central Coa… 9/8/…                0.2                   0.18
 9    152 Camarillo Central Coa… 9/9/…                0.19                  0.18
10    152 Camarillo Central Coa… 9/10…                0.18                  0.14
# ℹ 416 more rows
# ℹ 2 more variables: avg_e_to_in <dbl>, difference_percent <dbl>

# DAILY Dataset
drops <- c("qc_")
daily[ , !(names(daily) %in% drops)]

# A tibble: 426 × 33
   stn_id stn_name  cimis_region       date  jul   e_to_in qc_7  precip_in qc_9 
    <dbl> <chr>     <chr>              <chr> <chr>   <dbl> <chr>     <dbl> <chr>
 1    152 Camarillo Central Coast Val… 9/1/… 245      0.19 <NA>       0.09 <NA> 
 2    152 Camarillo Central Coast Val… 9/2/… 246      0.18 <NA>       0.11 <NA> 
 3    152 Camarillo Central Coast Val… 9/3/… 247      0.19 <NA>       0.07 <NA> 
 4    152 Camarillo Central Coast Val… 9/4/… 248      0.19 <NA>       0.11 <NA> 
 5    152 Camarillo Central Coast Val… 9/5/… 249      0.21 <NA>       0.1  <NA> 
 6    152 Camarillo Central Coast Val… 9/6/… 250      0.2  R          0.02 <NA> 
 7    152 Camarillo Central Coast Val… 9/7/… 251      0.2  <NA>       0    <NA> 
 8    152 Camarillo Central Coast Val… 9/8/… 252      0.2  <NA>       0.01 <NA> 
 9    152 Camarillo Central Coast Val… 9/9/… 253      0.19 <NA>       0.02 <NA> 
10    152 Camarillo Central Coast Val… 9/10… 254      0.18 <NA>       0.01 <NA> 
# ℹ 416 more rows
# ℹ 24 more variables: sol_rad_ly_day <dbl>, qc_11 <chr>,
#   avg_vap_pres_m_bars <dbl>, qc_13 <chr>, max_air_temp_f <dbl>, qc_15 <chr>,
#   min_air_temp_f <dbl>, qc_17 <chr>, avg_air_temp_f <dbl>, qc_19 <chr>,
#   max_rel_hum_percent <dbl>, qc_21 <chr>, min_rel_hum_percent <dbl>,
#   qc_23 <chr>, avg_rel_hum_percent <dbl>, qc_25 <chr>, dew_point_f <dbl>,
#   qc_27 <chr>, avg_wind_speed_mph <dbl>, qc_29 <chr>, wind_run_miles <dbl>, …
…
